…
For many research questions, these changes don’t matter. We just want to
know when they first entered and finally left. To address this I wrote a
function, `merge_periods`, to join time intervals together. Here is some
data I simulated to demonstrate this:

``` r
data(periods_data)
periods_data
#> # A tibble: 241 × 3
#>       id ts_start            ts_end             
#>    <int> <dttm>              <dttm>             
#>  1     1 2020-11-03 03:20:00 2020-11-03 03:29:00
#>  2     1 2020-11-03 03:37:00 2020-11-03 03:42:00
#>  3     1 2020-11-03 03:45:00 2020-11-03 03:53:00
#>  4     1 2020-11-03 03:46:00 2020-11-03 03:55:00
#>  5     1 2020-11-03 04:01:00 2020-11-03 04:21:00
#>  6     1 2020-11-03 04:13:00 2020-11-03 04:29:00
#>  7     1 2020-11-03 04:31:00 2020-11-03 04:43:00
#>  8     1 2020-11-03 04:44:00 2020-11-03 04:52:00
#>  9     1 2020-11-03 04:53:00 2020-11-03 04:56:00
#> 10     1 2020-11-03 04:58:00 2020-11-03 05:00:00
#> # … with 231 more rows
```
…
The required arguments supplied are the data frame (`df`) and the column
names of the start and end time. After that any number of columns to
group by can be supplied (in this case just `id`). Then there are
optional named arguments such as `tolerance` which will allow gaps of
that number of `units` to be merged together. With this call the first
and second records will not be merged since they are 8 minutes apart but
the second and third will. Here is some of the output:

``` r

merged_periods
#> # A tibble: 123 × 3
#>       id ts_start            ts_end             
#>    <int> <dttm>              <dttm>             
#>  1     1 2020-11-03 03:20:00 2020-11-03 03:29:00
#>  2     1 2020-11-03 03:37:00 2020-11-03 03:55:00
#>  3     1 2020-11-03 04:01:00 2020-11-03 05:16:00
#>  4     1 2020-11-03 05:52:00 2020-11-03 06:16:00
#>  5     1 2020-11-03 06:56:00 2020-11-03 07:04:00
#>  6     1 2020-11-03 07:12:00 2020-11-03 07:58:00
#>  7     1 2020-11-03 08:05:00 2020-11-03 08:11:00
#>  8     1 2020-11-03 08:18:00 2020-11-03 08:27:00
#>  9     2 2020-11-03 06:17:00 2020-11-03 06:47:00
#> 10     2 2020-11-03 07:47:00 2020-11-03 08:47:00
#> # … with 113 more rows
```
…
